<?xml version="1.0" encoding="UTF-8"?>
<svg width="75px" height="75px" viewBox="0 0 75 75" version="1.1" xmlns="http://www.w3.org/2000/svg" xmlns:xlink="http://www.w3.org/1999/xlink">
    <!-- Generator: Sketch 52.5 (67469) - http://www.bohemiancoding.com/sketch -->
    <title>right arrow block</title>
    <desc>Created with Sketch.</desc>
    <defs>
        <linearGradient x1="77.9305965%" y1="23.2437842%" x2="0%" y2="100%" id="linearGradient-1">
            <stop stop-color="#16A1AF" offset="0%"></stop>
            <stop stop-color="#1B60CE" offset="100%"></stop>
        </linearGradient>
    </defs>
    <g id="Page-1" stroke="none" stroke-width="1" fill="none" fill-rule="evenodd">
        <g id="Project-[Mobile]" transform="translate(0.000000, -1810.000000)">
            <g id="Mugga-lane" transform="translate(-88.000000, 669.000000)">
                <g id="Location-image" transform="translate(88.000000, 840.000000)">
                    <g id="right-arrow-block" transform="translate(37.500000, 338.500000) scale(-1, 1) translate(-37.500000, -338.500000) translate(0.000000, 301.000000)">
                        <rect id="Rectangle" fill="url(#linearGradient-1)" fill-rule="nonzero" x="0" y="0" width="75" height="75"></rect>
                        <path d="M53.447783,41 L20.552217,41 C20.247236,41 20,40.7761424 20,40.5 C20,40.2238576 20.247236,40 20.552217,40 L53.447783,40 C53.752764,40 54,40.2238576 54,40.5 C54,40.7761424 53.752764,41 53.447783,41 Z" id="Path" fill="#FFFFFF"></path>
                        <path d="M54.4141331,41 C54.2629876,40.9993761 54.1183818,40.938617 54.0125804,40.8312793 L37.1643326,23.9592121 C36.9441229,23.7386817 36.9453889,23.3823903 37.1671604,23.1634129 C37.3889318,22.9444356 37.7472283,22.9456946 37.967438,23.1662249 L54.8383085,40.0439162 C54.9974188,40.2053289 55.043895,40.4457782 54.9562977,40.6543446 C54.8687004,40.8629109 54.6640514,40.9990655 54.4367558,41 L54.4141331,41 Z" id="Path" fill="#FFFFFF"></path>
                        <path d="M37.5634063,56.9996695 C37.3360452,56.9987871 37.1313374,56.8702227 37.0437149,56.6732831 C36.9560923,56.4763436 37.002582,56.2492985 37.161738,56.096884 L54.014834,40.1653739 C54.1563151,40.0268739 54.3657631,39.969747 54.564281,40.0155123 C54.7627989,40.0612776 54.9202271,40.2029822 54.9772639,40.3872475 C55.0343007,40.5715128 54.9822808,40.7703444 54.8407997,40.9088444 L37.9877038,56.8403544 C37.8764294,56.9471036 37.722412,57.004934 37.5634063,56.9996695 Z" id="Path" fill="#FFFFFF"></path>
                    </g>
                </g>
            </g>
        </g>
    </g>
</svg>